<?xml version="1.0" encoding="utf-8"?>
<!-- Generator: Adobe Illustrator 16.0.0, SVG Export Plug-In . SVG Version: 6.00 Build 0)  -->
<!DOCTYPE svg PUBLIC "-//W3C//DTD SVG 1.1//EN" "http://www.w3.org/Graphics/SVG/1.1/DTD/svg11.dtd">
<svg version="1.1" id="Layer_1" xmlns="http://www.w3.org/2000/svg" xmlns:xlink="http://www.w3.org/1999/xlink" x="0px" y="0px" viewBox="0 0 534.24 252" xml:space="preserve">

<style>
	.white{
		fill:#FFF;
	}
	.orange{
		fill:#ED8517;
	}
</style>
<path class="white" d="M167.4,185.835c-1.102,0.551-2.151,1.275-3.15,2.175c-3.3,3-6.626,5.527-9.975,7.575
	c-3.352,2.051-6.9,3.727-10.65,5.025c-3.75,1.301-7.852,2.25-12.3,2.85c-4.451,0.6-9.427,0.9-14.925,0.9
	c-9.202,0-17.801-1.725-25.8-5.175c-8.001-3.45-14.951-8.423-20.85-14.925c-5.901-6.499-10.575-14.498-14.025-24
	c-3.45-9.499-5.175-20.348-5.175-32.55c0-11.798,1.725-22.425,5.175-31.875c3.45-9.45,8.25-17.475,14.4-24.075
	c6.15-6.6,13.5-11.674,22.05-15.225c8.55-3.548,17.925-5.325,28.125-5.325c8.7,0,15.875,0.9,21.525,2.7
	c5.648,1.8,10.324,3.75,14.025,5.85c3.698,2.1,6.75,4.05,9.15,5.85c2.4,1.8,4.749,2.7,7.05,2.7c2.199,0,3.924-0.45,5.175-1.35
	c1.249-0.9,2.273-1.95,3.075-3.15l13.5-18.75c-8.602-8.499-18.926-15.323-30.975-20.475c-12.052-5.149-26.126-7.725-42.225-7.725
	c-16.5,0-31.575,2.726-45.225,8.175C61.725,30.487,49.999,38.111,40.2,47.91c-9.802,9.801-17.4,21.476-22.8,35.025
	C12,96.487,9.3,111.412,9.3,127.71c0,16.102,2.423,30.952,7.275,44.55c4.849,13.601,11.824,25.301,20.925,35.1
	c9.099,9.802,20.074,17.452,32.925,22.95c12.849,5.501,27.324,8.25,43.425,8.25c18,0,33.424-2.899,46.275-8.7
	c12.849-5.798,23.674-14.149,32.475-25.05l-15.9-17.25c-1.601-1.699-3.502-2.55-5.7-2.55
	C169.699,185.01,168.499,185.287,167.4,185.835z"/>
<path class="white" d="M106.965,110.295c-2.82,1.11-5.228,2.685-7.222,4.725c-1.996,2.041-3.541,4.53-4.635,7.47
	c-1.095,2.94-1.643,6.225-1.643,9.855c0,3.66,0.547,6.96,1.643,9.9c1.095,2.94,2.64,5.445,4.635,7.515
	c1.995,2.07,4.402,3.661,7.222,4.77c2.82,1.11,5.955,1.665,9.405,1.665c3.449,0,6.577-0.555,9.382-1.665
	c2.805-1.109,5.198-2.7,7.178-4.77c1.98-2.07,3.51-4.574,4.59-7.515c1.08-2.94,1.62-6.24,1.62-9.9c0-3.63-0.54-6.915-1.62-9.855
	c-1.08-2.94-2.61-5.43-4.59-7.47c-1.98-2.04-4.373-3.615-7.178-4.725c-2.806-1.109-5.933-1.665-9.382-1.665
	C112.92,108.63,109.785,109.186,106.965,110.295z M107.73,143.752c-1.86-2.594-2.79-6.368-2.79-11.317
	c0-4.95,0.93-8.737,2.79-11.363c1.86-2.625,4.74-3.938,8.64-3.938c3.84,0,6.683,1.305,8.527,3.915
	c1.845,2.61,2.768,6.406,2.768,11.385c0,4.98-0.922,8.76-2.768,11.34c-1.845,2.581-4.688,3.87-8.527,3.87
	C112.47,147.645,109.59,146.348,107.73,143.752z"/>
<path class="white" d="M158.939,170.595v-18.9c1.44,1.411,3.067,2.513,4.883,3.308c1.815,0.794,4.027,1.192,6.637,1.192
	c3.03,0,5.767-0.607,8.213-1.822c2.445-1.215,4.529-2.902,6.255-5.063c1.725-2.16,3.052-4.709,3.982-7.65
	c0.93-2.94,1.395-6.135,1.395-9.585c0-3.78-0.413-7.133-1.237-10.058c-0.826-2.925-1.996-5.385-3.51-7.38
	c-1.515-1.995-3.315-3.517-5.4-4.568c-2.085-1.05-4.388-1.575-6.908-1.575c-3.24,0-6.068,0.66-8.482,1.98
	c-2.415,1.32-4.553,3.045-6.413,5.175l-0.9-4.275c-0.15-0.69-0.48-1.2-0.99-1.53c-0.511-0.33-1.125-0.495-1.845-0.495h-6.795v61.245
	H158.939z M173.362,118.08c1.154,0.54,2.137,1.395,2.947,2.565s1.433,2.693,1.868,4.567c0.435,1.875,0.652,4.163,0.652,6.863
	c0,2.67-0.255,4.988-0.765,6.952c-0.51,1.965-1.237,3.593-2.182,4.883c-0.945,1.29-2.1,2.25-3.465,2.88s-2.888,0.945-4.567,0.945
	c-1.71,0-3.308-0.307-4.792-0.922c-1.485-0.614-2.857-1.702-4.118-3.263v-20.7c1.41-1.77,2.932-3.143,4.568-4.118
	c1.635-0.975,3.607-1.462,5.917-1.462C170.894,117.27,172.207,117.54,173.362,118.08z"/>
<path class="white" d="M209.834,170.595v-18.9c1.44,1.411,3.067,2.513,4.882,3.308c1.815,0.794,4.028,1.192,6.638,1.192
	c3.03,0,5.767-0.607,8.212-1.822c2.445-1.215,4.529-2.902,6.255-5.063c1.725-2.16,3.052-4.709,3.982-7.65
	c0.93-2.94,1.395-6.135,1.395-9.585c0-3.78-0.413-7.133-1.237-10.058c-0.826-2.925-1.996-5.385-3.51-7.38
	c-1.515-1.995-3.315-3.517-5.4-4.568c-2.085-1.05-4.387-1.575-6.907-1.575c-3.24,0-6.068,0.66-8.482,1.98
	c-2.416,1.32-4.553,3.045-6.413,5.175l-0.9-4.275c-0.151-0.69-0.48-1.2-0.99-1.53c-0.51-0.33-1.125-0.495-1.845-0.495h-6.795v61.245
	H209.834z M224.256,118.08c1.155,0.54,2.138,1.395,2.948,2.565c0.81,1.17,1.432,2.693,1.867,4.567
	c0.435,1.875,0.653,4.163,0.653,6.863c0,2.67-0.255,4.988-0.765,6.952c-0.511,1.965-1.238,3.593-2.183,4.883
	c-0.945,1.29-2.1,2.25-3.465,2.88c-1.366,0.63-2.888,0.945-4.567,0.945c-1.71,0-3.308-0.307-4.793-0.922
	c-1.485-0.614-2.857-1.702-4.117-3.263v-20.7c1.41-1.77,2.932-3.143,4.567-4.118c1.635-0.975,3.607-1.462,5.917-1.462
	C221.789,117.27,223.101,117.54,224.256,118.08z"/>
<path class="white" d="M259.4,110.43c-2.745,1.2-5.07,2.828-6.975,4.882c-1.905,2.055-3.368,4.471-4.387,7.245
	c-1.021,2.775-1.53,5.737-1.53,8.887c0,4.05,0.585,7.613,1.755,10.688c1.17,3.076,2.774,5.655,4.815,7.74
	c2.04,2.085,4.439,3.661,7.2,4.725c2.76,1.064,5.745,1.597,8.955,1.597c1.62,0,3.292-0.12,5.018-0.36
	c1.725-0.24,3.42-0.652,5.085-1.237s3.263-1.365,4.792-2.34c1.53-0.974,2.91-2.182,4.14-3.623l-3.24-4.05
	c-0.24-0.33-0.525-0.585-0.855-0.765c-0.33-0.18-0.72-0.27-1.17-0.27c-0.69,0-1.403,0.21-2.138,0.63
	c-0.735,0.42-1.59,0.885-2.565,1.395c-0.975,0.51-2.115,0.975-3.42,1.395c-1.305,0.42-2.857,0.63-4.657,0.63
	c-3.661,0-6.6-1.109-8.82-3.33c-2.22-2.22-3.495-5.7-3.825-10.44h28.53c0.51,0,0.93-0.067,1.26-0.203
	c0.33-0.135,0.592-0.36,0.787-0.675c0.195-0.315,0.33-0.75,0.405-1.305c0.075-0.555,0.112-1.252,0.112-2.092
	c0-3.33-0.495-6.292-1.485-8.888c-0.99-2.594-2.37-4.785-4.14-6.57c-1.771-1.785-3.877-3.143-6.322-4.073
	c-2.445-0.929-5.123-1.395-8.033-1.395C265.243,108.63,262.146,109.23,259.4,110.43z M273.238,117.428
	c1.23,0.555,2.25,1.313,3.06,2.272c0.81,0.96,1.41,2.078,1.8,3.353c0.39,1.275,0.585,2.632,0.585,4.072h-20.88
	c0.51-3.359,1.68-5.955,3.51-7.785c1.83-1.829,4.365-2.745,7.605-2.745C270.567,116.595,272.008,116.873,273.238,117.428z"/>
<path class="white" d="M308.832,155.52v-28.755c1.14-2.459,2.535-4.327,4.185-5.603c1.649-1.275,3.629-1.913,5.94-1.913
	c1.29,0,2.325,0.105,3.105,0.315c0.78,0.21,1.395,0.315,1.845,0.315c0.51,0,0.915-0.112,1.215-0.337
	c0.3-0.225,0.495-0.607,0.585-1.147l1.44-8.325c-1.5-1.05-3.39-1.575-5.67-1.575c-2.76,0-5.25,0.825-7.47,2.475
	c-2.221,1.65-4.156,3.9-5.805,6.75l-0.675-5.58c-0.151-1.02-0.45-1.74-0.9-2.16c-0.45-0.42-1.245-0.63-2.385-0.63h-6.525v46.17
	H308.832z"/>
<path class="white" d="M345.596,155.52v-33.39c1.5-1.5,3.089-2.685,4.77-3.555c1.68-0.87,3.479-1.305,5.4-1.305
	c2.61,0,4.567,0.772,5.873,2.317c1.305,1.545,1.958,3.728,1.958,6.547v29.385h11.115v-29.385c0-2.58-0.337-4.942-1.013-7.087
	c-0.675-2.145-1.665-3.989-2.97-5.535c-1.305-1.545-2.933-2.745-4.882-3.6c-1.951-0.855-4.185-1.283-6.705-1.283
	c-2.91,0-5.445,0.525-7.605,1.575c-2.16,1.05-4.14,2.43-5.94,4.14V88.65h-11.115v66.87H345.596z"/>
<path class="white" d="M395.433,110.43c-2.745,1.2-5.07,2.828-6.975,4.882c-1.905,2.055-3.368,4.471-4.387,7.245
	c-1.021,2.775-1.53,5.737-1.53,8.887c0,4.05,0.585,7.613,1.755,10.688c1.17,3.076,2.774,5.655,4.815,7.74
	c2.04,2.085,4.439,3.661,7.2,4.725c2.76,1.064,5.745,1.597,8.955,1.597c1.62,0,3.292-0.12,5.018-0.36
	c1.725-0.24,3.42-0.652,5.085-1.237s3.263-1.365,4.792-2.34c1.53-0.974,2.91-2.182,4.14-3.623l-3.24-4.05
	c-0.24-0.33-0.525-0.585-0.855-0.765c-0.33-0.18-0.72-0.27-1.17-0.27c-0.69,0-1.403,0.21-2.137,0.63
	c-0.736,0.42-1.591,0.885-2.565,1.395c-0.975,0.51-2.115,0.975-3.42,1.395c-1.305,0.42-2.857,0.63-4.657,0.63
	c-3.661,0-6.601-1.109-8.82-3.33c-2.22-2.22-3.495-5.7-3.825-10.44h28.53c0.51,0,0.93-0.067,1.26-0.203
	c0.33-0.135,0.592-0.36,0.787-0.675c0.195-0.315,0.33-0.75,0.405-1.305c0.075-0.555,0.112-1.252,0.112-2.092
	c0-3.33-0.495-6.292-1.485-8.888c-0.99-2.594-2.37-4.785-4.14-6.57c-1.77-1.785-3.877-3.143-6.322-4.073
	c-2.445-0.929-5.123-1.395-8.033-1.395C401.275,108.63,398.178,109.23,395.433,110.43z M409.271,117.428
	c1.23,0.555,2.25,1.313,3.06,2.272c0.81,0.96,1.41,2.078,1.8,3.353c0.39,1.275,0.585,2.632,0.585,4.072h-20.88
	c0.51-3.359,1.68-5.955,3.51-7.785c1.83-1.829,4.365-2.745,7.605-2.745C406.6,116.595,408.04,116.873,409.271,117.428z"/>
<path class="white" d="M469.929,126.36c0-2.61-0.382-5.01-1.147-7.2c-0.765-2.189-1.883-4.073-3.353-5.647
	c-1.47-1.575-3.262-2.805-5.377-3.69c-2.115-0.884-4.522-1.327-7.222-1.327c-7.5,0-13.905,2.43-19.215,7.29l2.025,3.555
	c0.33,0.57,0.765,1.051,1.305,1.44c0.54,0.391,1.185,0.585,1.935,0.585c0.9,0,1.725-0.21,2.475-0.63
	c0.75-0.419,1.567-0.892,2.452-1.417c0.885-0.524,1.927-0.997,3.128-1.417c1.199-0.42,2.7-0.63,4.5-0.63
	c2.49,0,4.387,0.748,5.692,2.245c1.305,1.496,1.958,3.802,1.958,6.915v2.72c-5.25,0-9.646,0.452-13.185,1.355
	c-3.541,0.903-6.375,2.039-8.505,3.409c-2.131,1.37-3.653,2.905-4.567,4.605c-0.916,1.701-1.373,3.424-1.373,5.17
	c0,2.077,0.33,3.898,0.99,5.463c0.66,1.565,1.582,2.875,2.768,3.928c1.185,1.053,2.602,1.844,4.252,2.37
	c1.649,0.526,3.45,0.79,5.4,0.79c1.649,0,3.15-0.135,4.5-0.405s2.625-0.675,3.825-1.215c1.199-0.54,2.362-1.208,3.487-2.002
	c1.125-0.794,2.272-1.717,3.442-2.768l0.99,3.285c0.299,0.961,0.75,1.598,1.35,1.913c0.6,0.315,1.424,0.473,2.475,0.473h4.995
	V126.36z M443.807,147.321c-1.155-0.846-1.732-2.25-1.732-4.215c0-0.997,0.277-1.918,0.833-2.764
	c0.555-0.846,1.492-1.586,2.813-2.221c1.32-0.634,3.067-1.156,5.243-1.564c2.175-0.408,4.882-0.612,8.123-0.612v7.728
	c-0.81,0.827-1.613,1.543-2.408,2.149c-0.795,0.605-1.62,1.114-2.475,1.528s-1.763,0.724-2.722,0.93
	c-0.96,0.207-2.01,0.31-3.15,0.31C446.469,148.59,444.961,148.167,443.807,147.321z"/>
<path class="white" d="M520.149,155.52V88.65h-11.115v24.39c-1.44-1.379-3.075-2.482-4.905-3.308
	c-1.831-0.825-4.036-1.237-6.615-1.237c-3.03,0-5.76,0.607-8.19,1.822c-2.43,1.215-4.516,2.903-6.255,5.063
	c-1.74,2.16-3.076,4.71-4.005,7.65c-0.93,2.941-1.395,6.12-1.395,9.54c0,3.78,0.412,7.14,1.238,10.08
	c0.825,2.94,1.995,5.408,3.51,7.403c1.515,1.995,3.322,3.518,5.423,4.567c2.1,1.05,4.41,1.575,6.93,1.575
	c1.62,0,3.127-0.173,4.522-0.517c1.395-0.345,2.7-0.833,3.915-1.463c1.215-0.63,2.347-1.379,3.397-2.25
	c1.05-0.87,2.055-1.845,3.015-2.925l0.9,4.455c0.45,1.35,1.395,2.025,2.835,2.025H520.149z M494.634,146.587
	c-1.17-0.524-2.16-1.379-2.97-2.565c-0.81-1.185-1.433-2.715-1.867-4.59c-0.436-1.875-0.653-4.163-0.653-6.863
	c0-2.669,0.255-4.987,0.765-6.952c0.51-1.965,1.237-3.584,2.183-4.86c0.945-1.274,2.1-2.228,3.465-2.857
	c1.365-0.63,2.887-0.945,4.567-0.945c1.71,0,3.308,0.315,4.792,0.945c1.485,0.63,2.858,1.71,4.118,3.24v20.7
	c-1.44,1.771-2.97,3.135-4.59,4.095c-1.62,0.96-3.585,1.44-5.895,1.44C497.109,147.375,495.804,147.113,494.634,146.587z"/>
<path class="white" d="M210.735,226.8v-28.755c1.14-2.459,2.535-4.327,4.185-5.603c1.649-1.275,3.629-1.913,5.94-1.913
	c1.29,0,2.325,0.106,3.105,0.315c0.78,0.21,1.395,0.315,1.845,0.315c0.51,0,0.915-0.113,1.215-0.338
	c0.3-0.225,0.495-0.607,0.585-1.147l1.44-8.325c-1.5-1.05-3.39-1.575-5.67-1.575c-2.76,0-5.25,0.826-7.47,2.475
	c-2.221,1.65-4.156,3.9-5.805,6.75l-0.675-5.58c-0.151-1.02-0.45-1.739-0.9-2.16c-0.45-0.419-1.245-0.63-2.385-0.63h-6.525v46.17
	H210.735z"/>
<path class="white" d="M246.172,181.71c-2.745,1.2-5.07,2.828-6.975,4.882c-1.905,2.055-3.368,4.471-4.387,7.245
	c-1.021,2.775-1.53,5.738-1.53,8.888c0,4.05,0.585,7.613,1.755,10.688c1.17,3.075,2.775,5.655,4.815,7.74
	c2.04,2.085,4.439,3.661,7.2,4.725c2.76,1.064,5.745,1.598,8.955,1.598c1.62,0,3.292-0.12,5.018-0.36
	c1.725-0.241,3.42-0.653,5.085-1.238s3.262-1.365,4.792-2.34c1.53-0.975,2.91-2.183,4.14-3.623l-3.24-4.05
	c-0.24-0.33-0.525-0.585-0.855-0.765c-0.331-0.18-0.72-0.27-1.17-0.27c-0.69,0-1.403,0.21-2.138,0.63
	c-0.735,0.42-1.59,0.885-2.565,1.395c-0.975,0.511-2.115,0.975-3.42,1.395c-1.305,0.42-2.857,0.63-4.658,0.63
	c-3.66,0-6.6-1.109-8.82-3.33c-2.22-2.22-3.495-5.699-3.825-10.44h28.53c0.51,0,0.93-0.067,1.26-0.202
	c0.33-0.135,0.592-0.36,0.787-0.675c0.195-0.315,0.33-0.75,0.405-1.305c0.074-0.555,0.112-1.252,0.112-2.093
	c0-3.33-0.495-6.292-1.485-8.888c-0.99-2.594-2.371-4.785-4.14-6.57c-1.771-1.785-3.878-3.142-6.322-4.072
	c-2.446-0.93-5.123-1.395-8.033-1.395C252.014,179.91,248.917,180.511,246.172,181.71z M260.009,188.708
	c1.23,0.556,2.25,1.313,3.06,2.272c0.81,0.96,1.41,2.078,1.8,3.353c0.39,1.275,0.585,2.632,0.585,4.072h-20.88
	c0.51-3.359,1.68-5.955,3.51-7.785c1.83-1.83,4.365-2.745,7.605-2.745C257.339,187.875,258.779,188.153,260.009,188.708z"/>
<path class="white" d="M320.668,197.64c0-2.61-0.382-5.01-1.147-7.2c-0.765-2.189-1.883-4.072-3.353-5.647
	c-1.47-1.575-3.263-2.805-5.377-3.69c-2.115-0.885-4.522-1.328-7.223-1.328c-7.5,0-13.905,2.43-19.215,7.29l2.025,3.555
	c0.33,0.57,0.765,1.05,1.305,1.44c0.54,0.39,1.185,0.585,1.935,0.585c0.9,0,1.725-0.209,2.475-0.63
	c0.75-0.42,1.567-0.893,2.453-1.417c0.885-0.524,1.927-0.997,3.127-1.417c1.2-0.42,2.7-0.63,4.5-0.63
	c2.49,0,4.388,0.749,5.692,2.245c1.305,1.496,1.958,3.802,1.958,6.915v2.721c-5.25,0-9.646,0.452-13.185,1.354
	c-3.541,0.903-6.375,2.04-8.505,3.409c-2.13,1.37-3.652,2.904-4.567,4.604c-0.916,1.701-1.373,3.424-1.373,5.17
	c0,2.077,0.33,3.898,0.99,5.463c0.659,1.565,1.582,2.875,2.768,3.929c1.185,1.053,2.602,1.843,4.252,2.37
	c1.649,0.526,3.449,0.79,5.4,0.79c1.649,0,3.15-0.135,4.5-0.405c1.35-0.27,2.625-0.675,3.825-1.215
	c1.2-0.54,2.363-1.207,3.488-2.002c1.125-0.794,2.272-1.717,3.442-2.768l0.99,3.285c0.299,0.96,0.75,1.598,1.35,1.913
	c0.6,0.315,1.424,0.472,2.475,0.472h4.995V197.64z M294.545,218.601c-1.155-0.846-1.732-2.251-1.732-4.215
	c0-0.997,0.277-1.918,0.833-2.764c0.555-0.846,1.492-1.586,2.813-2.221c1.32-0.634,3.067-1.156,5.243-1.563
	c2.175-0.408,4.882-0.612,8.123-0.612v7.728c-0.81,0.827-1.613,1.543-2.408,2.148c-0.795,0.605-1.62,1.115-2.475,1.528
	c-0.855,0.413-1.763,0.723-2.723,0.93c-0.96,0.207-2.01,0.31-3.15,0.31C297.208,219.87,295.7,219.447,294.545,218.601z"/>
<path class="white" d="M353.293,226.485c2.1-0.689,3.96-1.71,5.58-3.06l-3.33-5.4c-0.241-0.33-0.466-0.577-0.675-0.742
	c-0.21-0.165-0.48-0.248-0.81-0.248c-0.27,0-0.54,0.083-0.81,0.248c-0.27,0.165-0.578,0.337-0.923,0.517
	c-0.345,0.18-0.75,0.353-1.215,0.518c-0.465,0.166-1.043,0.248-1.732,0.248c-1.2,0-2.16-0.405-2.88-1.215
	c-0.72-0.81-1.08-1.935-1.08-3.375v-25.02h12.15v-7.92h-12.15V166.5h-5.76c-0.66,0-1.208,0.165-1.642,0.495
	c-0.436,0.331-0.713,0.795-0.833,1.395l-2.34,12.6l-7.425,1.215v4.41c0,0.78,0.217,1.365,0.652,1.755
	c0.435,0.39,0.952,0.585,1.553,0.585h4.68v25.785c0,3.99,1.08,7.118,3.24,9.382c2.16,2.266,5.234,3.397,9.225,3.397
	C349.018,227.52,351.192,227.175,353.293,226.485z"/>
<path class="white" d="M367.152,180.63v46.17h11.115v-46.17H367.152z M379.347,164.385c-0.39-0.87-0.908-1.62-1.552-2.25
	c-0.646-0.63-1.403-1.132-2.272-1.507c-0.871-0.375-1.8-0.563-2.79-0.563c-0.96,0-1.868,0.188-2.723,0.563
	c-0.855,0.375-1.598,0.877-2.228,1.507c-0.63,0.63-1.133,1.38-1.507,2.25c-0.375,0.871-0.563,1.8-0.563,2.79
	c0,0.961,0.187,1.861,0.563,2.7c0.375,0.84,0.877,1.575,1.507,2.205s1.373,1.133,2.228,1.507c0.855,0.375,1.762,0.563,2.723,0.563
	c0.99,0,1.919-0.187,2.79-0.563c0.87-0.375,1.627-0.877,2.272-1.507c0.645-0.63,1.162-1.365,1.552-2.205
	c0.39-0.839,0.585-1.739,0.585-2.7C379.932,166.185,379.737,165.255,379.347,164.385z"/>
<path class="white" d="M401.127,181.575c-2.82,1.11-5.228,2.685-7.223,4.725c-1.995,2.041-3.54,4.53-4.635,7.47
	c-1.096,2.94-1.643,6.226-1.643,9.855c0,3.661,0.547,6.96,1.643,9.9c1.095,2.94,2.64,5.445,4.635,7.515s4.402,3.661,7.223,4.77
	c2.819,1.109,5.955,1.665,9.405,1.665c3.45,0,6.577-0.556,9.383-1.665c2.805-1.109,5.197-2.7,7.177-4.77s3.51-4.575,4.59-7.515
	c1.08-2.94,1.62-6.239,1.62-9.9c0-3.629-0.54-6.915-1.62-9.855c-1.08-2.94-2.61-5.43-4.59-7.47c-1.98-2.04-4.373-3.615-7.177-4.725
	c-2.806-1.11-5.933-1.665-9.383-1.665C407.082,179.91,403.946,180.465,401.127,181.575z M401.892,215.033
	c-1.861-2.595-2.79-6.368-2.79-11.318c0-4.95,0.929-8.737,2.79-11.362c1.859-2.625,4.74-3.938,8.64-3.938
	c3.84,0,6.683,1.305,8.528,3.915c1.845,2.61,2.768,6.405,2.768,11.385c0,4.98-0.923,8.76-2.768,11.34
	c-1.845,2.581-4.688,3.87-8.528,3.87C406.632,218.925,403.751,217.628,401.892,215.033z"/>
<path class="white" d="M453.102,226.8v-33.39c1.5-1.5,3.089-2.685,4.77-3.555c1.68-0.87,3.48-1.305,5.4-1.305
	c2.61,0,4.567,0.773,5.873,2.318c1.305,1.545,1.958,3.728,1.958,6.547V226.8h11.115v-29.385c0-2.58-0.338-4.942-1.013-7.087
	c-0.675-2.145-1.665-3.99-2.97-5.535c-1.305-1.545-2.933-2.745-4.882-3.6c-1.951-0.855-4.185-1.282-6.705-1.282
	c-1.56,0-3,0.15-4.32,0.45c-1.321,0.3-2.558,0.736-3.712,1.305c-1.155,0.57-2.25,1.245-3.285,2.025
	c-1.035,0.781-2.018,1.65-2.947,2.61l-0.765-3.645c-0.45-1.35-1.395-2.025-2.835-2.025h-6.795v46.17H453.102z"/>
<path class="white" d="M523.076,185.625c-1.74-1.71-3.915-3.089-6.525-4.14c-2.61-1.05-5.505-1.575-8.685-1.575
	c-2.851,0-5.363,0.382-7.538,1.147c-2.175,0.765-3.99,1.785-5.445,3.06c-1.456,1.275-2.558,2.767-3.308,4.478
	c-0.75,1.71-1.125,3.51-1.125,5.4c0,2.041,0.322,3.78,0.968,5.22c0.645,1.44,1.5,2.655,2.565,3.645
	c1.064,0.99,2.279,1.808,3.645,2.453c1.365,0.646,2.76,1.208,4.185,1.688c1.424,0.48,2.819,0.922,4.185,1.328
	c1.365,0.405,2.58,0.863,3.645,1.373c1.065,0.51,1.92,1.11,2.565,1.8c0.645,0.69,0.967,1.575,0.967,2.655
	c0,0.72-0.143,1.417-0.427,2.093c-0.286,0.675-0.736,1.268-1.35,1.777c-0.615,0.511-1.395,0.922-2.34,1.238
	c-0.945,0.315-2.078,0.472-3.397,0.472c-1.68,0-3.067-0.195-4.162-0.585c-1.096-0.389-2.048-0.81-2.858-1.26
	c-0.81-0.45-1.523-0.87-2.137-1.26c-0.615-0.389-1.268-0.585-1.958-0.585c-0.69,0-1.26,0.135-1.71,0.405
	c-0.45,0.27-0.84,0.66-1.17,1.17l-2.565,4.23c0.9,0.81,1.942,1.56,3.128,2.25c1.185,0.69,2.475,1.29,3.87,1.8
	c1.395,0.511,2.85,0.907,4.365,1.192c1.515,0.285,3.067,0.428,4.657,0.428c2.97,0,5.603-0.382,7.897-1.147
	c2.295-0.765,4.223-1.83,5.783-3.195c1.56-1.365,2.745-2.985,3.555-4.86c0.81-1.875,1.215-3.922,1.215-6.143
	c0-1.859-0.323-3.449-0.968-4.77c-0.645-1.32-1.5-2.452-2.565-3.397c-1.065-0.945-2.272-1.725-3.623-2.34
	c-1.35-0.614-2.73-1.162-4.14-1.643c-1.411-0.479-2.79-0.922-4.14-1.328c-1.35-0.405-2.558-0.862-3.623-1.372
	c-1.065-0.51-1.92-1.103-2.565-1.778c-0.646-0.675-0.967-1.507-0.967-2.498c0-1.5,0.63-2.715,1.89-3.645
	c1.26-0.929,2.985-1.395,5.175-1.395c1.41,0,2.632,0.151,3.667,0.45c1.035,0.3,1.958,0.638,2.768,1.013
	c0.81,0.375,1.522,0.713,2.137,1.012c0.615,0.3,1.193,0.45,1.732,0.45c0.51,0,0.93-0.097,1.26-0.292
	c0.33-0.195,0.645-0.532,0.945-1.013L523.076,185.625z"/>
<path fill-rule="evenodd" clip-rule="evenodd" class="orange" d="M372.96,156.56l11.201,11.2L372.96,178.96l-11.201-11.201
	L372.96,156.56z"/>
</svg>
